%YAML 1.1
%TAG !u! tag:unity3d.com,2011:
--- !u!74 &7400000
AnimationClip:
  m_ObjectHideFlags: 0
  m_CorrespondingSourceObject: {fileID: 0}
  m_PrefabInstance: {fileID: 0}
  m_PrefabAsset: {fileID: 0}
  m_Name: Block_Explode
  serializedVersion: 6
  m_Legacy: 0
  m_Compressed: 0
  m_UseHighQualityCurve: 1
  m_RotationCurves: []
  m_CompressedRotationCurves: []
  m_EulerCurves: []
  m_PositionCurves: []
  m_ScaleCurves:
  - curve:
      serializedVersion: 2
      m_Curve:
      - serializedVersion: 3
        time: 0
        value: {x: 1, y: 1, z: 1}
        inSlope: {x: -5.3560667, y: -6.753228, z: 0}
        outSlope: {x: -5.3560667, y: -6.753228, z: 0}
        tangentMode: 0
        weightedMode: 0
        inWeight: {x: 0.33333334, y: 0.33333334, z: 0.33333334}
        outWeight: {x: 0.48658538, y: 0.40548784, z: 0.33333334}
      - serializedVersion: 3
        time: 0.033333335
        value: {x: 0.6159875, y: 0.50324637, z: 1}
        inSlope: {x: -11.365571, y: 0.20384769, z: 0}
        outSlope: {x: -11.365571, y: 0.20384769, z: 0}
        tangentMode: 0
        weightedMode: 0
        inWeight: {x: 0.33333334, y: 0.33333334, z: 0.33333334}
        outWeight: {x: 0.33333334, y: 0.36920735, z: 0.33333334}
      - serializedVersion: 3
        time: 0.05
        value: {x: 0.50684017, y: 0.55881983, z: 1}
        inSlope: {x: -0.15233302, y: 6.153929, z: 0}
        outSlope: {x: -0.15233302, y: 6.153929, z: 0}
        tangentMode: 0
        weightedMode: 0
        inWeight: {x: 0.33333334, y: 0.33333334, z: 0.33333334}
        outWeight: {x: 0.18902445, y: 0.33333334, z: 0.33333334}
      - serializedVersion: 3
        time: 0.15
        value: {x: 1.3859068, y: 1.559549, z: 1}
        inSlope: {x: 8.86465, y: 2.6631432, z: 0}
        outSlope: {x: 8.86465, y: 2.6631432, z: 0}
        tangentMode: 0
        weightedMode: 0
        inWeight: {x: 0.33333334, y: 0.33333334, z: 0.33333334}
        outWeight: {x: 0.33333334, y: 0.33333334, z: 0.33333334}
      - serializedVersion: 3
        time: 0.18333334
        value: {x: 1.5508244, y: 1.3609788, z: 1}
        inSlope: {x: 0.044954237, y: -12.235323, z: 0}
        outSlope: {x: 0.044954237, y: -12.235323, z: 0}
        tangentMode: 0
        weightedMode: 0
        inWeight: {x: 0.33333334, y: 0.33333334, z: 0.33333334}
        outWeight: {x: 0.8370117, y: 0.33333334, z: 0.33333334}
      - serializedVersion: 3
        time: 0.25
        value: {x: 0.6478457, y: 0.64500785, z: 1}
        inSlope: {x: -0.4775757, y: 0.12432768, z: 0}
        outSlope: {x: -0.4775757, y: 0.12432768, z: 0}
        tangentMode: 0
        weightedMode: 0
        inWeight: {x: 1, y: 1, z: 0.33333334}
        outWeight: {x: 0.33333334, y: 0.33333334, z: 0.33333334}
      m_PreInfinity: 2
      m_PostInfinity: 2
      m_RotationOrder: 4
    path: 
  m_FloatCurves: []
  m_PPtrCurves: []
  m_SampleRate: 60
  m_WrapMode: 0
  m_Bounds:
    m_Center: {x: 0, y: 0, z: 0}
    m_Extent: {x: 0, y: 0, z: 0}
  m_ClipBindingConstant:
    genericBindings:
    - serializedVersion: 2
      path: 0
      attribute: 3
      script: {fileID: 0}
      typeID: 4
      customType: 0
      isPPtrCurve: 0
    pptrCurveMapping: []
  m_AnimationClipSettings:
    serializedVersion: 2
    m_AdditiveReferencePoseClip: {fileID: 0}
    m_AdditiveReferencePoseTime: 0
    m_StartTime: 0
    m_StopTime: 0.25
    m_OrientationOffsetY: 0
    m_Level: 0
    m_CycleOffset: 0
    m_HasAdditiveReferencePose: 0
    m_LoopTime: 0
    m_LoopBlend: 0
    m_LoopBlendOrientation: 0
    m_LoopBlendPositionY: 0
    m_LoopBlendPositionXZ: 0
    m_KeepOriginalOrientation: 0
    m_KeepOriginalPositionY: 1
    m_KeepOriginalPositionXZ: 0
    m_HeightFromFeet: 0
    m_Mirror: 0
  m_EditorCurves:
  - curve:
      serializedVersion: 2
      m_Curve:
      - serializedVersion: 3
        time: 0
        value: 1
        inSlope: -5.3560667
        outSlope: -5.3560667
        tangentMode: 0
        weightedMode: 0
        inWeight: 0.33333334
        outWeight: 0.48658538
      - serializedVersion: 3
        time: 0.05
        value: 0.50684017
        inSlope: -0.15233302
        outSlope: -0.15233302
        tangentMode: 0
        weightedMode: 0
        inWeight: 0.33333334
        outWeight: 0.18902445
      - serializedVersion: 3
        time: 0.18333334
        value: 1.5508244
        inSlope: 0.044954237
        outSlope: 0.044954237
        tangentMode: 0
        weightedMode: 0
        inWeight: 0.33333334
        outWeight: 0.8370117
      - serializedVersion: 3
        time: 0.25
        value: 0.6478457
        inSlope: -0.4775757
        outSlope: -0.4775757
        tangentMode: 0
        weightedMode: 0
        inWeight: 1
        outWeight: 0.33333334
      m_PreInfinity: 2
      m_PostInfinity: 2
      m_RotationOrder: 4
    attribute: m_LocalScale.x
    path: 
    classID: 4
    script: {fileID: 0}
  - curve:
      serializedVersion: 2
      m_Curve:
      - serializedVersion: 3
        time: 0
        value: 1
        inSlope: -6.753228
        outSlope: -6.753228
        tangentMode: 0
        weightedMode: 0
        inWeight: 0.33333334
        outWeight: 0.40548784
      - serializedVersion: 3
        time: 0.033333335
        value: 0.50324637
        inSlope: 0.20384769
        outSlope: 0.20384769
        tangentMode: 0
        weightedMode: 0
        inWeight: 0.33333334
        outWeight: 0.36920735
      - serializedVersion: 3
        time: 0.15
        value: 1.559549
        inSlope: 2.6631432
        outSlope: 2.6631432
        tangentMode: 0
        weightedMode: 0
        inWeight: 0.33333334
        outWeight: 0.33333334
      - serializedVersion: 3
        time: 0.25
        value: 0.64500785
        inSlope: 0.12432768
        outSlope: 0.12432768
        tangentMode: 0
        weightedMode: 0
        inWeight: 1
        outWeight: 0.33333334
      m_PreInfinity: 2
      m_PostInfinity: 2
      m_RotationOrder: 4
    attribute: m_LocalScale.y
    path: 
    classID: 4
    script: {fileID: 0}
  - curve:
      serializedVersion: 2
      m_Curve:
      - serializedVersion: 3
        time: 0
        value: 1
        inSlope: 0
        outSlope: 0
        tangentMode: 136
        weightedMode: 0
        inWeight: 0.33333334
        outWeight: 0.33333334
      - serializedVersion: 3
        time: 0.25
        value: 1
        inSlope: 0
        outSlope: 0
        tangentMode: 136
        weightedMode: 0
        inWeight: 0.33333334
        outWeight: 0.33333334
      m_PreInfinity: 2
      m_PostInfinity: 2
      m_RotationOrder: 4
    attribute: m_LocalScale.z
    path: 
    classID: 4
    script: {fileID: 0}
  m_EulerEditorCurves: []
  m_HasGenericRootTransform: 0
  m_HasMotionFloatCurves: 0
  m_Events:
  - time: 0.23333333
    functionName: DestroyBlock
    data: 
    objectReferenceParameter: {fileID: 0}
    floatParameter: 0
    intParameter: 0
    messageOptions: 0
